ISSS608-VAA - Take Home Exercise 2
…
Click to show/hide the code

MC2_graph <- tbl_graph(nodes = MC2_nodes_extracted,
                       edges = MC2_edges_aggregated, 
                       directed = TRUE)

Click to show/hide the code

MC2_graph

# A tbl_graph: 352 nodes and 1629 edges
#
# A directed acyclic multigraph with 15 components
#
# A tibble: 352 × 1
  id                                             
  <chr>                                          
1 1 Ltd. Liability Co Cargo                      
2 9 Marine biology Ltd Family                    
3 Adriatic Catch Ltd. Liability Co Transportation
4 Adriatic Tuna AS Solutions                     
5 Amerigo Dockyard S.p.A. Distribution           
6 Ancla de Oro N.V.                              
# ℹ 346 more rows
#
# A tibble: 1,629 × 5
   from    to hscode  Year Weight
  <int> <int> <chr>  <dbl>  <int>
1     1   202 306170  2028     68
2     1   202 306170  2029     59
3     1   202 306170  2030     26
# ℹ 1,626 more rows
…
