ISSS608-VAA - Take-home Exercise 1
…
participantId     timestamp      category        amount       yearmon 
            0             0             0             0             0 

3.3.3 Checking and removing of duplicate rows

We can use the unique() function to retain rows that are distinct (i.e remove all duplicate rows).

As seen in the table below, there are now 1,512,523 rows in the data set fin_journal, meaning 1,113 duplicate rows were removed from the data set.

Click to show/hide the code

fin_journal <- unique(fin_journal)
fin_journal

# A tibble: 1,512,523 × 5
   participantId timestamp           category  amount yearmon
           <int> <dttm>              <chr>      <dbl> <chr>  
 1             0 2022-03-01 00:00:00 Wage      2473.  2022-03
 2             0 2022-03-01 00:00:00 Shelter   -555.  2022-03
 3             0 2022-03-01 00:00:00 Education  -38.0 2022-03
 4             1 2022-03-01 00:00:00 Wage      2047.  2022-03
 5             1 2022-03-01 00:00:00 Shelter   -555.  2022-03
 6             1 2022-03-01 00:00:00 Education  -38.0 2022-03
 7             2 2022-03-01 00:00:00 Wage      2437.  2022-03
 8             2 2022-03-01 00:00:00 Shelter   -557.  2022-03
 9             2 2022-03-01 00:00:00 Education  -12.8 2022-03
10             3 2022-03-01 00:00:00 Wage      2367.  2022-03
# ℹ 1,512,513 more rows

The same check is done on participants, and as seen from the table below, there are no duplicate rows to be removed.

Click to show/hide the code

unique(participants)

# A tibble: 1,011 × 7
   participantId householdSize haveKids   age educationLevel      interestGroup
           <int>         <int> <lgl>    <int> <fct>               <chr>        
 1             0             3 TRUE        36 HighSchoolOrCollege H            
 2             1             3 TRUE        25 HighSchoolOrCollege B            
 3             2             3 TRUE        35 HighSchoolOrCollege A            
 4             3             3 TRUE        21 HighSchoolOrCollege I            
 5             4             3 TRUE        43 Bachelors           H            
 6             5             3 TRUE        32 HighSchoolOrCollege D            
 7             6             3 TRUE        26 HighSchoolOrCollege I            
 8             7             3 TRUE        27 Bachelors           A            
 9             8             3 TRUE        20 Bachelors           G            
10             9             3 TRUE        35 Bachelors           D            
# ℹ 1,001 more rows
# ℹ 1 more variable: joviality <dbl>
…
